/home/ben/ttest/iobasedsemanticcodesearch/src/main/java/parser/Parser.java
/home/ben/ttest/iobasedsemanticcodesearch/src/main/java/main/InputOutputMatcherTestClone.java
/home/ben/ttest/iobasedsemanticcodesearch/src/main/java/compilation/JavaMultipleSrcDir.java
/home/ben/ttest/iobasedsemanticcodesearch/src/main/java/main/G.java
/home/ben/ttest/iobasedsemanticcodesearch/src/main/java/equality/EqualityTester.java
/home/ben/ttest/iobasedsemanticcodesearch/src/main/java/methods/MethodInputIterator.java
/home/ben/ttest/iobasedsemanticcodesearch/src/main/java/process/ProcessExecutor.java
/home/ben/ttest/iobasedsemanticcodesearch/src/main/java/compilation/JavaSrcCompiler.java
/home/ben/ttest/iobasedsemanticcodesearch/src/main/java/process/Process.java
/home/ben/ttest/iobasedsemanticcodesearch/src/main/java/python/BarPlot.java
/home/ben/ttest/iobasedsemanticcodesearch/src/main/java/utils/HashUtils.java
/home/ben/ttest/iobasedsemanticcodesearch/src/main/java/utils/MethodUtil.java
/home/ben/ttest/iobasedsemanticcodesearch/src/main/java/composition/MethodComposition.java
/home/ben/ttest/iobasedsemanticcodesearch/src/main/java/methods/MethodExtractor.java
/home/ben/ttest/iobasedsemanticcodesearch/src/main/java/cache/LRUCache.java
/home/ben/ttest/iobasedsemanticcodesearch/src/main/java/process/invoke/MethodInvocationCallable.java
/home/ben/ttest/iobasedsemanticcodesearch/src/main/java/inputoutputMatching/InputOutputMatcher.java
/home/ben/ttest/iobasedsemanticcodesearch/src/main/java/cache/Cache.java
/home/ben/ttest/iobasedsemanticcodesearch/src/main/java/compilation/FileCompileCallable.java
/home/ben/ttest/iobasedsemanticcodesearch/src/main/java/filters/NumericMethodPredicate.java
/home/ben/ttest/iobasedsemanticcodesearch/src/main/java/compilation/JavaSrcDir.java
/home/ben/ttest/iobasedsemanticcodesearch/src/main/java/userinput/UserMethodMatcher.java
/home/ben/ttest/iobasedsemanticcodesearch/src/main/java/methods/MethodIteratorInputIterator.java
/home/ben/ttest/iobasedsemanticcodesearch/src/main/java/methods/AllMethodInputs.java
/home/ben/ttest/iobasedsemanticcodesearch/src/main/java/equality/tests/EqualsTest.java
/home/ben/ttest/iobasedsemanticcodesearch/src/main/java/process/invoke/InvokeProcess.java
/home/ben/ttest/iobasedsemanticcodesearch/src/main/java/utils/NullWriter.java
/home/ben/ttest/iobasedsemanticcodesearch/src/main/java/parser/Tokenizer.java
/home/ben/ttest/iobasedsemanticcodesearch/src/main/java/main/Main.java
/home/ben/ttest/iobasedsemanticcodesearch/src/main/java/python/BoxPlot.java
/home/ben/ttest/iobasedsemanticcodesearch/src/main/java/equality/EqualityTest.java
/home/ben/ttest/iobasedsemanticcodesearch/src/main/java/equality/tests/ArrayTest.java
/home/ben/ttest/iobasedsemanticcodesearch/src/main/java/equality/tests/DoubleFloatTest.java
/home/ben/ttest/iobasedsemanticcodesearch/src/main/java/utils/Scrapper.java
/home/ben/ttest/iobasedsemanticcodesearch/src/main/java/methods/ClassObjectPair.java
/home/ben/ttest/iobasedsemanticcodesearch/src/main/java/python/Plot.java
/home/ben/ttest/iobasedsemanticcodesearch/src/main/java/equality/tests/StringIgnoreCaseTest.java
/home/ben/ttest/iobasedsemanticcodesearch/src/main/java/utils/Util.java
/home/ben/ttest/iobasedsemanticcodesearch/src/main/java/parser/Token.java
/home/ben/ttest/iobasedsemanticcodesearch/src/main/java/methods/IterationMethodInputs.java
/home/ben/ttest/iobasedsemanticcodesearch/src/main/java/cache/InfinityCache.java
/home/ben/ttest/iobasedsemanticcodesearch/src/main/java/process/invoke/ScheduleThread.java
/home/ben/ttest/iobasedsemanticcodesearch/src/main/java/utils/StringUtils.java
/home/ben/ttest/iobasedsemanticcodesearch/src/main/java/process/compiler/CompilerProcess.java
/home/ben/ttest/iobasedsemanticcodesearch/src/main/java/parser/PrimitiveArrayParser.java
/home/ben/ttest/iobasedsemanticcodesearch/src/main/java/methods/CurrentValues.java
/home/ben/ttest/iobasedsemanticcodesearch/src/main/java/methods/MethodContainer.java
